791462 235888 509
31987 296373 443
924308 732358 525
496166 989016 525
748997 312019 509
578409 531422 452
664140 184280 509
471771 468352 382
595233 613750 403
614869 233883 470
246847 112334 443
952741 883835 507
870432 488541 525
359879 21886 443
118185 476116 449
78273 58573 351
862750 734646 525
879567 206502 525
362638 799133 509
564437 917829 525
148642 154045 370
826009 283342 509
994182 695793 525
600894 799386 509
270391 301446 389
751169 522936 509
652906 858724 525
38119 319916 443
17410 89118 351
779664 789038 406
505146 784702 509
144334 670007 509
866014 477339 525
228338 786527 509
280900 555122 470
216059 315632 443
10006 563164 470
366918 922620 525
526080 664885 509
291751 718771 509
815645 126747 509
337406 740467 509
227667 927621 525
581985 799971 509
103603 536551 470
205638 55290 383
912116 254342 525
120394 614345 470
969182 135312 525
80369 692257 509
378212 623867 470
436506 78804 449
31813 842417 525
799529 681709 504
167494 136735 383
885806 467483 525
107662 654789 509
882081 978545 507
747251 998618 525
287669 61915 443
241921 66990 443
677618 827447 504
560776 793867 509
371412 725690 509
602500 183318 470
655712 489204 509
74285 630233 509
314359 201543 443
995123 614572 525
325739 882122 525
830066 402614 509
271301 908952 525
429321 361525 449
574019 320738 470
340167 167567 443
837547 425394 509
364071 335486 441
158289 996803 525
339100 30739 443
962125 695089 525
321448 194992 443
190416 479271 449
470271 760029 509
244648 346458 441
724563 980140 525
227119 271596 443
927302 638820 525
238894 337411 407
646397 704438 442
724009 45538 509
275887 495269 449
265741 857371 525
40079 233598 443
511463 891458 525
173691 716903 509
129129 232930 443
688838 395678 509
84341 794653 509
312531 686749 509
329114 658736 509
409536 250563 441
631239 897709 525
99328 911010 525
113740 216976 386
431453 909437 525
893031 903653 401
756769 729894 424
779338 681066 504
23549 613138 470
831901 376568 509
796728 522605 509
788734 53560 509
843513 45922 525
142982 725694 509
812838 978991 525
247584 419552 449
700980 35568 509
218489 430042 449
950497 977633 458
105699 562706 470
670819 117668 509
970513 706338 525
359798 517313 470
918999 155060 525
780601 322662 509
774166 19030 509
16833 811649 509
587580 233951 470
520660 423166 470
471305 974023 525
996130 116496 525
639639 239773 509
836762 797079 450
479517 187173 449
267512 153561 443
552516 86884 470
302962 771367 509
516172 600116 452
264933 845015 525
871092 41961 525
517590 371619 470
162231 680610 509
340051 779491 509
927151 785650 525
216923 358472 443
118467 488106 449
206729 191896 360
390538 612578 470
196519 554352 470
435847 324533 449
853031 760515 525
299691 249658 407
570227 738089 509
18559 794244 509
194227 420017 449
74812 989432 525
257401 152261 443
831197 42967 509
158864 310917 443
192920 581550 470
191214 822794 509
237157 856850 525
983349 783745 525
29781 253292 443
810387 58220 509
266405 967945 525
415393 596239 470
481629 380245 449
298813 894319 525
282856 38499 443
556618 487867 470
759906 882780 525
645675 643989 310
714144 403935 509
308111 649774 509
853888 138895 525
91138 659019 509
315434 619073 470
541359 722023 509
101433 201100 383
176982 845016 525
951802 175847 525
622426 275623 470
507986 635482 509
480750 826425 509
134842 920774 525
185014 166402 365
549042 536852 452
21278 425471 449
266466 137021 443
344524 734329 509
790773 350261 509
141496 748987 509
233648 146628 443
274134 464194 449
273301 797589 509
285188 236400 407
49599 397406 443
182141 482617 449
902788 535705 525
206224 238309 443
23322 677610 509
632491 953287 525
604902 747937 509
386208 894873 525
923702 875577 476
421034 724265 509
435779 422247 418
65043 743332 509
89648 771883 509
430384 192162 449
887446 16414 525
433761 981238 525
415717 278971 449
931580 520097 525
