835628 690234 504
471090 297895 449
323002 903954 525
434930 743742 509
327503 628298 509
973802 245464 525
667381 983056 525
418206 631048 509
615585 130026 470
394313 529588 470
658669 947353 525
107085 371614 443
579849 190036 470
162998 515284 470
425735 66129 449
970680 417750 525
148338 899960 525
665329 253480 509
112704 866690 525
91644 987072 525
74889 228421 386
102329 791894 509
914315 326594 525
202067 294655 443
874482 642603 525
835796 702604 504
703277 322352 509
767348 688535 504
830226 957530 525
601864 955881 525
806728 816138 406
685431 608488 509
318836 390466 441
86073 490712 449
671281 299887 509
748682 905204 525
476244 169131 449
744490 417094 509
130160 836986 509
695401 906407 525
98467 662467 509
310105 225263 443
959892 661555 525
191549 66803 383
273173 999040 525
903910 823250 525
780866 799189 468
81495 585036 470
389290 468769 449
901980 422768 525
849303 955987 507
230732 525237 470
181327 344233 443
931591 409306 525
845183 136391 525
691601 728661 504
934510 449584 525
604104 105285 470
102404 832830 509
98972 552049 470
506434 252153 449
186248 48654 383
68017 525150 470
390822 108467 443
70743 445764 449
965284 960022 414
407399 764307 509
641680 110186 509
424384 519150 470
964396 92235 525
664155 899106 525
61141 2418 340
495866 337006 449
32882 408516 443
701981 947636 525
674536 686182 385
199329 259102 443
671997 626388 442
421341 235084 449
775307 294851 509
132111 700977 509
666781 414636 509
968175 146488 525
416488 273277 449
547048 791547 509
65208 997330 525
651985 481340 509
828353 288086 509
652179 186618 509
264619 891233 525
824591 764929 468
79799 624521 470
488162 903777 525
29712 933123 525
569931 297780 470
82654 67334 351
273223 999255 525
370056 345202 441
960157 50609 525
327902 98304 443
879372 215886 525
390432 412780 449
965173 411845 525
350230 964737 525
821935 546152 509
205824 43743 383
853352 122214 525
275356 728763 509
66279 139961 354
91808 181719 383
468515 480745 413
998115 816401 525
515326 16731 470
216213 658051 509
501672 339121 449
425022 7825 449
904264 542303 525
885515 644962 525
298127 321486 384
194694 184220 360
861663 957536 507
655291 193257 509
757074 696105 504
679829 704657 504
916808 622278 525
572359 227042 470
580415 346669 470
86553 654941 509
870452 514398 525
972198 770616 525
481113 256938 449
646018 924750 525
536594 836325 509
205607 449172 449
276907 960818 525
354039 958942 525
783578 103900 509
320674 987184 525
270252 535565 470
796069 165486 509
401564 827637 509
71444 71730 250
106784 112625 323
408356 493335 449
482988 208833 449
762638 776735 468
591720 903416 525
686387 146549 509
967598 34516 525
760230 400044 509
128381 702204 509
722560 706323 411
801124 670910 504
536017 205410 470
550083 142865 470
390359 637433 509
682725 372656 509
218538 877024 525
448902 65727 449
789643 916886 525
382408 18210 443
741562 328053 509
480020 623664 470
445835 912083 525
772709 642264 504
510551 551650 470
201465 895001 525
110311 456722 449
341230 46843 443
572328 756463 509
245728 682741 509
807563 655291 504
571650 468616 470
541621 873901 525
620518 738284 509
806450 51114 509
499723 195116 449
636159 863123 525
530288 263473 470
692232 12174 509
935593 317490 525
503100 816887 509
687817 169229 509
400294 532595 470
702492 490266 509
323931 138166 443
956052 361057 525
847617 583469 525
553838 420767 470
147431 744123 509
513786 322982 470
158415 316484 443
246503 839921 525
210696 959794 525
281718 736399 509
743103 405188 509
814636 557864 509
231142 676712 509
729295 737819 424
386041 538872 470
574210 408571 470
