12312 439360 449
764844 244216 509
646113 595914 509
651325 287763 509
431716 475530 444
869606 300071 525
372567 24687 443
517810 730497 509
154400 277564 443
224856 10367 386
58558 748247 509
515920 427749 470
519906 911224 525
198730 490058 449
994487 720100 525
224434 16435 386
771450 532855 509
45260 638434 509
378971 555189 470
135533 90621 354
542875 280925 470
28234 725943 509
225312 779146 509
114091 410439 449
198475 885583 525
401355 362026 436
148325 942929 525
852100 578985 525
52442 947994 525
556267 655069 509
283504 885265 525
308418 271834 389
357133 907345 525
878301 517357 525
706361 675908 504
705327 735136 411
212577 473673 449
723797 558082 509
510178 958051 525
324481 543071 470
218581 408962 443
106721 554967 470
283201 300201 389
151562 808456 509
387747 538609 470
743009 511372 509
152628 135351 375
29703 3382 308
589996 433036 470
498348 543079 470
915514 6483 525
198786 963371 525
513600 578449 452
84127 831340 509
424635 311176 449
486574 758746 509
723418 345821 509
104617 343389 443
562027 235627 470
597864 425112 470
108506 634787 509
969351 370338 525
174318 772867 509
996614 560066 525
615506 162700 470
453438 353089 449
378750 730320 509
736221 406122 509
641024 626316 509
413227 567730 470
562021 497653 470
77673 921698 525
488915 669148 509
406089 619912 470
485365 71807 449
560134 444687 470
197108 426189 449
362923 60730 443
763230 36537 509
381809 690052 509
390311 254339 441
410564 340654 449
940339 395419 525
33585 505758 449
991776 679200 525
140868 963159 525
274932 423232 449
958464 481390 525
790332 25403 509
849630 478419 525
743211 166398 509
134134 432895 449
504430 74262 449
623560 638361 509
505802 436931 444
551093 930125 525
605095 314525 470
561107 819817 509
356767 834703 509
191195 588958 470
292064 728956 509
446261 55581 449
460684 411624 418
373309 576782 470
872351 131815 525
471095 985114 525
899634 951926 507
330224 3335 443
162339 363199 443
372471 473905 449
765960 857458 525
800851 52924 509
117373 136124 344
10909 771697 509
312076 677869 509
431384 221479 449
738343 694816 504
78913 288899 443
19106 194927 383
245243 134262 443
575675 111698 470
382189 353183 423
556325 382935 470
354094 821404 509
279065 724345 509
427890 535252 470
258335 488267 449
915592 67862 525
633621 449107 509
915342 611297 525
902356 640697 525
987789 831939 525
945738 987992 458
911873 663861 525
94754 426183 449
397081 33186 443
979737 710620 525
641746 225545 509
256014 531982 470
498111 224270 449
200686 210759 373
861626 914461 476
793007 311292 509
180389 174143 347
4428 281178 443
34168 563947 470
324153 975278 525
161840 683419 509
139281 9210 354
308742 98596 443
390177 42419 443
332938 176866 443
607669 530360 452
245224 45572 443
153875 440757 449
264104 243003 407
666346 338170 509
472791 486699 413
617220 865889 525
301379 675696 509
999736 30737 525
278167 455447 449
450897 95940 449
104195 96050 341
770286 947183 525
904357 74154 525
200289 306797 443
116669 621023 470
837822 769527 525
114552 464746 449
166140 381478 443
300165 267684 407
592868 98132 470
379998 170475 443
336610 647565 509
338625 76668 443
590611 263964 470
621272 521699 452
75232 300939 443
281096 232655 407
904030 426078 525
348408 988627 525
924007 311791 525
64969 336825 443
374638 551456 470
414099 570268 470
181115 497702 449
433070 502711 444
356597 347344 379
807077 484925 509
728107 914756 525
789252 597000 509
371186 275395 441
271178 346760 441
539198 314112 470
206963 800498 509
368723 377547 423
426467 603219 470
266211 283278 407
552201 326088 470
693874 792582 504
470875 389778 449
964646 173490 525
948494 844240 507
77601 476714 449
648681 579172 509
392443 325355 441
105367 291787 443
480761 951670 525
30000 955289 525
521812 55282 470
354378 915074 525
308571 816431 509
870066 650331 525
521370 170672 470
665088 661598 367
341920 325843 366
301776 209796 443
886359 547242 525
986217 995189 396
312725 296857 384
999794 493367 525
211758 60363 383
386633 294185 441
192133 443465 449
330587 224057 443
773363 320119 509
89978 441972 449
861305 69532 525
925780 290420 525
713315 105931 509
928336 823859 525
72712 753262 509
42229 234336 443
176389 887144 525
397674 6584 443
517434 218530 470
655685 69246 509
292977 67106 443
488073 154064 449
656780 60720 509
220560 152600 386
239545 117 443
527637 596017 452
576568 431665 470
121513 939575 525
621461 911506 525
153813 633456 509
248892 128172 443
87367 209406 383
582170 584418 434
764167 846666 525
842138 992307 507
365093 218248 443
657347 159714 509
689840 314687 509
303419 469809 449
853965 169317 525
611550 685418 509
868656 858692 388
242812 967800 525
662973 160699 509
105771 26615 351
617677 587590 447
640797 511894 509
273179 383442 441
850138 749958 525
517548 417122 470
726735 86535 509
121935 398980 443
352945 806620 509
315445 366363 441
21436 404423 443
180593 877086 525
215667 264721 443
586058 647437 509
170011 99716 383
506065 295059 449
954725 692089 525
181201 758256 509
198238 55152 383
568440 957076 525
407103 685189 509
237214 321729 407
839437 632348 525
844498 985011 507
202024 535152 470
542434 358729 470
466049 909080 525
261794 73445 443
301785 322051 384
502099 559126 470
671758 573820 509
687414 230688 509
246773 124116 443
