838340 671135
999675 546670
158345 171748
190367 41711
153785 241079
456071 555486
72061 625118
46790 463713
649537 424536
603630 34103
660940 162428
351245 32490
968235 278824
62678 826982
498314 431869
276657 786386
99661 929270
877179 851052
302618 849332
359011 124631
421330 967238
797011 759700
64635 833386
686552 764180
557551 427587
241967 455744
252033 250381
562755 35713
490490 928275
719628 197538
988000 168983
271988 160142
290536 879485
13240 68817
862866 367108
680204 979642
864664 829568
259045 847593
711263 112166
548921 187232
836933 240017
433652 677187
398748 551543
962705 568086
192464 954165
703045 215389
537247 611552
375714 718203
119211 183501
532066 594342
911020 647068
797057 974450
492339 70447
20834 821189
319654 454630
436400 416056
585283 910954
310895 722602
958387 576917
944809 224287
795041 556096
800643 651150
914133 577074
848159 342858
922233 424994
11670 952778
3853 833651
693193 191689
842660 340281
792538 515575
726013 166703
481020 510789
745725 381968
975455 76304
681108 377283
463744 547392
371949 823192
127802 609121
295812 623851
551951 552037
267492 163172
790229 918858
791399 12973
456096 307363
267480 605713
211593 151489
948618 872739
360926 971073
932585 387609
205205 353151
323877 129696
246896 157265
400522 824567
670141 550830
532794 579118
606912 236076
656713 395565
342288 641257
149129 515239
607652 882071
962915 692100
979869 330089
638764 597695
198316 800812
348016 976454
211229 813630
844900 405893
679562 521013
557508 82251
370354 903326
92044 238929
921104 247138
614963 266325
846842 25941
985473 10917
26715 288967
531859 793496
221495 799476
258252 202746
181455 136995
516297 925785
910114 396388
507280 943915
322011 266837
623234 349551
943954 360093
141130 98961
527534 859867
667645 885833
984117 518566
829321 608823
945138 15173
552644 103354
340748 480555
496453 32351
241515 835885
292526 384817
941905 897190
714177 254280
36684 75868
700871 413458
92642 475048
385142 847878
578733 157798
383781 34678
108892 214082
330040 197875
946555 948824
381144 642945
498910 857619
841987 889810
298217 901116
806491 273561
618923 218339
367532 778542
789742 644970
127727 845122
238456 884423
935256 233294
570847 777614
258595 57361
754455 450493
795289 773889
509525 178614
183748 281537
814717 398833
542997 71098
553735 950370
594658 739658
553598 650271
109279 51906
784651 731512
624572 279938
189487 448518
675146 91459
41970 781955
936978 335997
217444 958979
633756 452468
281926 855856
987073 350749
565555 900063
157279 255275
232628 157965
40118 700469
99995 972148
181329 649
673912 154154
801804 336939
668522 114489
860826 763174
974975 797342
957602 528480
349361 292272
431825 298763
582137 606227
329582 860543
218078 436728
789184 279947
262790 206163
622696 200491
344178 866882
246564 222162
697413 164072
278112 222684
44254 792326
474381 315623
591222 672617
134601 638856
90140 176228
