76518 980168 525
767453 249944 509
939223 573110 525
72692 122024 354
419052 32950 449
567353 186249 470
123279 284784 443
340092 329107 366
242300 751457 509
130236 290590 443
650624 787099 504
652406 623374 509
196641 610485 470
233570 289613 407
944105 26665 525
81553 449552 449
18514 660553 509
378039 963297 525
94474 183487 383
534750 244125 470
814950 103768 509
948172 220825 525
151552 908643 525
503623 522011 470
295723 576830 470
850738 680202 525
488576 960794 525
83315 295145 443
964667 880391 507
24156 775762 509
305757 147810 443
209979 465666 449
38323 852803 525
164214 167872 352
129564 281467 443
69717 58993 335
298054 639589 509
209378 603012 470
281746 569381 470
35215 876747 525
500659 247513 449
534546 135348 470
606814 418750 470
492058 922734 525
589081 858887 525
527810 665428 509
923587 23450 525
916891 388844 525
689307 640702 442
556169 560900 359
754360 858894 525
775203 205245 509
475386 257825 449
846058 353128 525
150176 326553 443
462309 644352 509
949721 208070 525
881362 486507 525
688461 66555 509
792975 811175 468
710269 499584 509
680457 370328 509
487371 106680 449
464283 85579 449
333743 677503 509
954525 45281 525
430583 572142 470
201352 688794 509
356862 419291 449
444622 477742 444
548985 213594 470
242251 952557 525
346436 513671 470
259170 257506 301
870450 207466 525
326592 454811 449
162295 239351 443
379747 187667 443
407295 558975 470
7102 560877 470
572025 742901 509
447688 448693 369
760599 504785 509
338316 748683 509
533982 148524 470
959688 211280 525
173278 621943 470
24886 956248 525
541337 76880 470
848750 364623 525
536241 219000 470
733616 219537 509
58984 37468 340
346630 406867 436
991219 355466 525
252706 728294 509
593614 42292 470
597699 237149 470
866402 670448 525
874435 602353 525
61440 885875 525
772794 951986 525
848726 380645 525
204936 451130 449
932479 45949 525
497056 480595 426
941883 790395 525
847502 198085 525
504011 648273 509
296915 221247 443
182518 946708 525
895425 533314 525
806219 30665 509
563405 65349 470
905299 237956 525
945641 194192 525
393407 347042 436
743648 778362 468
815277 238152 509
538010 396130 470
270199 2163 443
36950 839329 525
300140 310799 371
982185 952278 458
583391 420212 470
905171 938388 476
448127 653611 509
245784 410408 449
592684 665539 509
634702 255210 509
770426 274855 509
248924 929287 525
592842 914166 525
887189 778984 525
344500 493486 449
29470 537893 470
961198 32339 525
741730 689828 504
844662 395495 525
15902 750226 509
172174 770551 509
185331 747073 509
158996 992478 525
302745 600872 470
813086 94026 509
212693 820459 509
602729 477888 470
353883 339695 441
587236 264942 470
490784 981651 525
944777 253692 525
963436 879149 507
358058 403906 436
429770 295252 449
946736 118357 525
937998 333517 525
388668 819652 509
623574 479828 470
44580 654367 509
578620 799187 509
490926 659263 509
91524 774958 509
314028 328995 384
685065 667875 385
902807 414386 525
811014 391849 509
736299 127369 509
584296 836768 509
505098 23134 449
413813 348619 449
389203 931096 525
784608 971630 525
836061 599589 509
6579 91105 351
204992 899297 525
269730 820452 509
45593 339957 443
390555 327955 441
523717 428199 470
362649 123558 443
205933 909427 525
124793 628982 509
98229 962885 525
821951 539894 509
476306 10247 449
283013 56193 443
367472 602507 470
304733 380629 441
151734 823411 509
299837 466542 449
651797 424300 509
929285 200542 525
970696 471251 525
284989 670371 509
485400 862178 525
900485 703831 525
242004 4145 443
16630 535546 470
527446 317279 470
656786 696862 442
441607 58423 449
318331 619593 470
358174 764254 509
370800 568067 470
589401 390719 470
708813 354490 509
875619 393402 525
86797 556856 470
650877 295320 509
101508 214823 383
921868 457262 525
349657 19950 443
701216 767536 504
742789 653970 504
32783 818226 509
970385 849201 507
451028 709318 509
742489 716524 424
124266 358579 443
691633 979412 525
451777 9691 449
90138 133874 354
520725 451444 470
864112 824860 525
481394 170555 449
418109 428951 418
194252 180013 365
31092 525308 470
959356 214329 525
211667 65553 383
844522 793429 525
509764 168384 449
363400 924181 525
466306 589418 470
60168 370731 443
990706 655378 525
340786 422417 449
164143 451398 449
229807 533059 470
391038 652083 509
998809 62315 525
521586 397122 470
804911 361482 509
361994 987055 525
183782 432738 449
961204 509615 525
489054 16653 449
87427 30191 351
400831 152229 443
755802 798329 468
733315 102107 509
258072 887409 525
146345 26807 375
834551 727285 468
494706 981551 525
386429 590780 470
538687 397589 470
825851 489918 509
659831 385122 509
601167 51283 470
