73341 661218
519672 498663
316682 168632
167245 19068
461624 658361
104590 7442
292107 749967
861975 792170
342804 822079
821023 571663
105468 939000
576487 48755
507199 99862
333818 670238
557188 416806
593108 725742
755392 736199
831050 187675
297980 714830
30232 396409
735069 505195
643 948340
935343 166219
667210 537285
537219 286618
790158 468660
633223 662585
152154 261904
937660 183796
270478 723485
661068 545164
441484 727554
422668 98400
422372 925982
744443 372927
347884 650872
730880 461891
14295 548743
642662 204855
173696 800835
937563 334237
802126 442206
231445 421163
213330 259784
273309 887416
108074 425781
887263 204775
75368 238828
309741 642462
431474 579805
333607 991651
518381 265234
758451 744364
685792 664079
34702 20154
303793 700594
670143 612677
863484 569062
391336 20243
849221 343579
861194 557382
274998 809869
803044 295082
234970 665135
886431 724134
924928 140257
996060 562293
310031 421313
566502 323353
894048 576860
298238 59502
966993 766365
603424 632324
510144 777381
337922 932609
720606 959319
149536 295392
668153 631662
895806 641272
275612 756568
630436 676916
944751 993638
991889 965288
973607 135937
479014 378964
875442 917761
173964 40374
124645 620944
938438 685742
473901 917399
204754 80304
408011 623221
91993 261145
617465 767371
834217 161504
795535 187193
173163 840400
280269 386347
405023 30149
965416 389520
2278 625815
462703 381522
852980 701085
897497 571216
288481 500729
840490 634250
928379 671337
266456 599312
912016 523633
417585 301534
582164 144447
910177 18381
463050 93095
302266 772510
41452 138889
582027 740246
309678 714956
85619 598962
944774 130027
62635 858317
252655 188723
878747 222556
811359 845915
569775 500299
5647 6849
53530 315239
739862 444747
385049 677223
697265 251746
20785 959659
178810 294032
810829 228483
428463 844257
150893 48701
470039 262749
40727 659988
854868 247962
121632 575959
799884 234034
7135 990780
313914 340530
668395 492674
379578 16905
855065 20774
431754 177824
873834 888967
618318 990586
518308 18578
992267 901946
316924 924136
10155 543722
248810 771660
478062 529064
338193 204526
405402 830910
571335 821600
869087 466341
411404 574157
27147 898326
974775 521269
897048 142269
413508 100157
679692 758371
67533 144763
337925 567684
385947 507873
772841 583457
507236 501542
946114 705159
981160 960544
676912 818158
896827 261160
566300 467197
808541 577287
459980 461847
942224 623338
146197 155893
706966 678005
525438 431641
166371 977290
717042 212163
1286 938633
69804 874876
502570 63096
781987 124075
60908 299355
581063 607527
995065 623907
315563 592760
687610 560976
467625 933886
880849 214402
350502 836721
496881 663587
647001 237487
739767 711389
948255 636067
36175 227638
305597 39778
733387 204321
27401 827404
499134 899476
810945 607933
766787 275843
805305 890108
250110 385556
973950 451736
958367 932030
396631 560525
984752 32810
731495 648188
792383 131735
838462 923594
345813 649262
208674 870303
492605 126937
391316 203109
973900 410940
366454 804250
496900 229188
457377 312829
881882 802194
963283 404494
20226 838181
65056 4994
958559 685254
