5947 3832 236
5898 1491 238
9449 8857 260
2259 8536 262
5216 7225 262
9434 7498 260
3679 3251 194
5806 3172 238
2001 3950 238
7011 8512 252
362 1405 182
2477 89 209
8348 3485 262
5136 4645 210
5275 4600 210
498 7873 262
8985 3639 262
7139 2755 262
184 5251 238
8049 2169 262
7228 4794 262
6501 8459 257
4340 5132 215
4461 595 238
5382 6585 262
455 531 142
2291 5862 238
426 5171 238
8804 3833 262
5931 6050 187
6438 2723 262
9335 2341 262
576 704 171
2905 3869 238
3984 6071 236
4217 8356 262
7776 6027 262
7056 3048 262
6006 1149 238
1554 9773 262
4686 8012 262
7919 4541 262
5496 8933 262
4248 3161 238
2588 1479 209
2732 808 209
3945 1599 238
4112 565 238
2270 205 183
5379 8655 262
9698 5553 262
4114 7226 262
1085 1372 182
7371 6906 257
2147 2046 170
9396 3206 262
2441 5404 238
4638 3592 238
5505 9597 262
8928 2252 262
8432 2617 262
5035 8821 262
9102 9430 260
5853 4143 236
892 4043 238
2015 2292 183
4292 7815 262
9984 6806 260
2021 15 182
9828 612 262
4923 2132 238
7855 6720 257
141 3149 217
5517 3416 238
7679 2150 262
7021 8298 252
72 1353 182
1046 7311 262
2235 954 183
9812 9429 198
1381 6126 238
937 3242 217
3079 4211 238
4743 7064 262
4763 7274 262
9950 7547 260
5805 5764 205
7077 1653 262
6323 9529 260
7630 6959 239
2656 3148 217
7685 3776 262
279 726 171
3414 312 217
586 2307 183
1068 3712 238
5281 4999 192
5094 4449 210
7954 3698 262
5809 2297 238
7456 4473 262
1650 6408 262
2551 2655 191
3003 2138 217
6806 9351 260
2165 2408 183
1555 3176 217
8114 9167 247
2064 7025 262
5619 2415 238
4364 7386 262
8323 9905 260
4649 4423 184
2502 7417 262
4092 4610 215
6198 6842 244
7156 6226 257
5350 2740 238
8704 924 262
6232 3906 262
287 4676 238
9602 911 262
566 271 144
9602 2802 262
2267 2879 209
4489 3820 215
7137 8281 252
523 4957 238
9924 9856 242
8770 189 262
6235 4196 262
1092 2712 209
6555 7161 257
5879 4763 236
1173 3208 217
289 661 145
2962 5551 238
9183 8423 247
2761 5965 238
669 4081 238
988 1598 182
7741 5922 262
5660 8139 262
279 9748 262
8059 7750 252
7910 4002 262
3719 2855 238
9719 8546 260
3088 1326 217
7605 6202 257
13209 65229 340
86983 90058 333
78493 92490 338
51189 52059 309
10406 34472 311
84594 28759 351
18565 78578 351
37229 92624 351
72597 83469 351
33116 19353 308
12615 76091 340
32670 17886 308
54330 48804 340
10517 44367 324
94121 73979 351
77997 31557 351
202 10217 262
84752 10992 351
73849 69764 325
22229 81286 351
48412 88688 351
89125 68628 351
27277 5797 308
17569 1573 276
6102 44685 324
86432 49994 351
28546 7061 308
41262 31474 324
56464 64221 335
22467 20617 269
73238 75663 325
76372 84154 351
21363 17249 279
69371 71542 325
40078 55197 340
54259 31812 340
88893 4183 351
43892 33294 324
62719 22680 340
3603 77265 351
77332 27498 351
65893 51687 340
74188 73251 294
74083 88370 351
63196 55536 335
69654 82309 351
74501 36310 340
85442 17473 351
53862 99597 351
18243 97534 351
636733 986634 525
326268 396364 441
449038 615001 470
426524 753201 509
799823 461794 509
636586 39434 509
132585 455728 449
138826 524394 470
655260 318963 509
548542 334363 470
326561 999618 525
570941 272740 470
530482 405216 470
331291 792021 509
722181 619621 509
479973 646214 509
83287 146145 375
603745 505427 470
954728 916384 507
300800 733984 509
343013 532311 470
39609 875649 525
473059 387491 449
830282 814658 450
804845 187819 509
814683 981932 525
970080 873258 507
729497 89474 509
312223 57880 443
511057 926489 525
411283 909981 525
535421 601361 452
665856 858196 525
350171 264208 441
798388 297669 509
97589 612552 470
785928 717366 468
644441 188376 509
99559 385440 443
299896 738979 509
82724 349370 443
969891 892508 507
835303 706427 468
683392 303100 509
206815 929619 525
979419 360419 525
439565 325137 449
937827 661219 525
309327 486062 449
779026 620573 509
