501159 859859
669539 979976
611196 733021
704009 896456
644426 838392
914864 522068
74547 483231
773092 416506
573354 252593
346712 398708
251399 217749
348289 205084
166640 203731
886558 922678
77106 902070
825921 377625
453727 57056
998066 893486
254970 826792
724115 282193
793751 808068
83189 121315
611595 75938
495860 41515
267591 829610
116052 879896
791912 551986
773979 370659
240893 262011
277511 191524
902693 202696
543211 298285
677093 797800
899549 744823
283231 426222
265605 104056
645550 51829
424437 867084
549805 430099
242812 69792
553412 331301
102596 125563
512728 690276
99648 591158
887909 185631
518008 757982
184273 321787
984006 307020
694917 727619
217281 773451
862498 159633
252563 284548
925718 69334
578525 534222
920344 726618
364092 442049
105383 278709
58262 11482
280465 418523
942118 79455
648394 580029
239765 677506
430659 326072
289747 429941
61873 499953
216056 555462
623256 141364
657442 485171
34235 91728
720167 161458
492491 600365
287055 554663
640058 698735
899539 514255
376094 237415
845867 836183
174799 849764
704420 673068
646559 726629
837319 654726
712211 173672
316442 425619
184877 511772
681057 681109
264563 486456
690312 811814
289558 410404
171277 285792
426428 453894
774677 414173
586489 687456
860359 52071
565666 235879
87229 540278
975660 936774
309364 135375
230027 686120
748533 373787
899008 456214
710521 607573
349359 378991
428411 662378
225830 924876
970417 443913
650112 297620
804968 348951
481696 627375
410550 334773
877185 569401
757288 212739
948590 774046
646992 48218
103891 977988
20836 733545
376942 69770
224286 113165
677004 71358
314465 885765
540176 475718
225058 333070
103869 721128
585986 501603
178005 48155
88520 582432
370076 788381
863315 560752
360039 519094
66017 143628
544962 245201
120613 63990
672688 505589
650384 536523
926042 200844
876514 573145
786158 94583
409573 791039
779447 953143
620629 137903
323053 556724
542761 231249
585685 491961
515728 819117
513034 153750
677574 175547
924561 216051
933601 62459
313212 489915
77337 313091
889439 42081
657406 5176
607460 66009
103888 295506
648992 409641
574466 161778
527393 262299
384708 509490
429181 770906
369964 78738
205374 765944
156799 909910
650574 509566
301942 847265
804833 297853
927762 368812
5084 419627
887938 584219
413388 377804
514352 504616
737669 560225
112557 590456
769898 683556
854339 279921
881700 240563
14202 777065
603906 546588
351638 700852
16352 714993
636581 619308
984348 926671
39315 960616
519922 853362
251256 632824
68988 52169
646907 59245
842360 799592
580220 782753
14116 337457
596249 134428
408126 519715
66166 745192
619670 146713
463948 471362
16328 161428
173762 392624
740293 410668
4504 137788
128508 491629
361648 527794
923306 37359
772678 478156
854480 95534
612573 261408
616863 572654
506656 828808
696846 196218
783200 418458
37530 817645
959856 409547
491099 488366
534783 599978
658553 783444
311642 42604
229826 919502
844794 810478
934382 367000
703400 670060
890791 650003
864393 905254
389223 108944
235762 878172
178332 490479
45795 509065
92771 226188
896339 385029
799253 648394
318599 93142
69167 29063
958263 727926
915209 864294
183512 544988
766167 979936
491785 640696
208303 715793
844814 897628
948825 982285
20241 100674
758535 228613
774715 998468
