251157 497922 449
806223 725993 468
940791 728032 525
616892 148870 470
401593 646367 509
633874 80018 509
965923 422917 525
993678 229949 525
337975 107106 443
980101 706328 525
988040 11295 525
184511 710518 509
779614 968887 525
256274 764135 509
563894 610725 434
660350 243419 509
389038 120006 443
822290 428942 509
359039 641021 509
787264 656012 504
496569 843767 525
348285 677189 509
414560 840353 525
218680 519225 470
975002 477599 525
925846 355630 525
7925 3849 262
5616 7518 262
9277 6798 260
7583 3645 262
2823 7189 262
4950 102 238
3533 9113 262
482 957 179
534 138 144
791 20 171
865 665 171
222 971 179
892 949 174
597 455 142
316 284 131
632 36 144
799 361 171
794 252 171
183 532 144
878 723 179
567 393 142
104 122 114
328 277 144
728 428 171
102 653 145
223 990 179
677 320 145
485 179 144
440 588 142
700 284 145
953 105 179
630918 97639 509
545514 153807 470
409456 473322 449
996353 436146 525
61733 696169 509
389737 351800 436
844494 404043 525
195543 391766 443
232674 199861 443
233901 290522 407
147172 871249 525
728823 161369 509
327288 93496 443
377237 644636 509
985999 956425 458
150233 413751 449
176368 609890 470
224011 353906 443
618594 557953 447
649956 479016 509
89813 648404 509
116380 184912 383
862494 602140 525
428950 750165 509
92364 6017 351
142410 90680 354
503040 53131 449
113198 650175 509
192116 956116 525
610653 965874 525
892236 881860 445
23970 887230 525
560704 460161 470
132699 645224 509
742501 404213 509
370511 970747 525
754091 547371 509
505105 242822 449
369207 648543 509
681563 210868 509
352837 647614 509
832105 179969 509
885915 662704 525
42121 674065 509
650778 912619 525
580517 499206 470
106217 920745 525
951832 817517 525
271008 810700 509
508235 312198 449
156086 239445 443
9510 310984 443
750507 72174 509
353001 57072 443
899011 5983 525
495242 8930 449
776648 42572 509
2755 748426 509
16472 171006 383
2821 509960 449
9573 466309 449
1025 359524 443
49681 228115 386
805672 659149 504
9265 626790 509
32280 941681 525
20597 101091 351
468355 978752 525
19108 763760 509
32732 225600 386
50705 889054 525
28753 205512 383
87527 729081 509
24353 585138 470
7429 859886 525
62809 661661 509
1393 493599 449
8785 733761 509
3002 709568 509
301518 360582 441
13087 355226 443
357 826324 509
1711 446568 449
5570 222881 386
6946 258435 443
16015 438851 449
67713 936455 525
30166 532 308
30681 385276 443
92070 148954 375
49031 391881 443
13301 756740 509
18734 428110 449
59969 689561 509
3410 3094 199
564824 9190 470
39324 4197 324
656697 98600 509
859794 74135 525
58276 814335 509
10791 522294 470
49148 937298 525
36519 159887 383
85091 600374 470
53740 461428 449
36395 499757 449
37886 589107 470
609929 46584 470
284643 71994 443
823523 96455 509
4828 862 238
951 3094 217
7505 7217 239
3501 5702 238
8911 5989 262
4952 830 238
7648 42572 324
275 748426 509
472 1710 182
2821 5960 238
953 4309 238
125 3524 217
4968 2115 238
8056 6549 257
92 6790 262
280 681 145
207 1091 179
455 8752 262
108 7760 262
322 5600 238
505 854 171
287 2512 209
875 9081 262
2435 5138 238
749 8586 262
809 1661 182
139 3599 217
878 3761 238
300 768 171
308 3582 217
130 3226 217
37 24 112
111 568 144
557 881 179
69 235 128
165 431 144
673 6455 262
306 52 128
306 276 118
920 1954 182
49 81 116
101 7740 262
187 428 144
599 9561 262
310 394 144
4824 910 238
394 497 142
657 986 179
854 7435 262
582 4335 238
11 54 113
48 98 119
319 187 131
85 74 111
540 428 142
36 49 110
37 57 113
69 46 113
284 794 171
83 965 179
482 862 171
