588291 462024 470
525713 804607 509
787799 622531 509
517452 595146 452
352010 140726 443
422356 34790 449
480932 116194 449
282073 863382 525
108237 211908 383
640026 724225 504
461427 119767 449
483065 549599 470
355817 672884 509
65942 81450 351
376630 708889 509
341939 634196 509
427217 156518 449
85121 36368 351
547526 146252 470
984535 434392 525
387870 491030 449
266619 183530 443
833033 227738 509
460738 695505 509
2800 458673 449
516620 175858 470
259806 925780 525
142485 209264 383
135187 668215 509
768533 318605 509
297931 834816 509
174338 389849 443
354180 733356 509
121509 320332 443
350658 112859 443
603855 291420 470
619499 159787 470
844017 519287 525
428761 721104 509
380015 184782 443
642092 56798 509
142796 62323 375
321668 946523 525
679824 294319 509
872920 116061 525
469815 785752 509
371596 762490 509
62877 279991 443
370599 838140 525
275891 868046 525
229898 392326 443
171100 901177 525
713777 570428 509
978657 509919 525
809215 923970 525
573959 818198 509
283999 571355 470
512583 41920 470
46485 102566 351
162476 869284 525
390688 389526 361
408888 925957 525
959401 838349 507
517702 439421 470
743214 150920 509
439619 579285 470
165552 896142 525
449127 187791 449
290660 131938 443
798810 668622 504
422998 719324 509
238415 657493 509
415563 153639 449
79922 420721 449
173342 246869 443
134091 279249 443
730070 681438 504
466493 112297 449
549895 503750 470
233745 197791 443
21009 457290 449
511379 434056 444
732086 305701 509
562836 442998 470
571058 261977 470
778803 34290 509
453353 11509 449
202310 659309 509
995814 824713 525
300821 182543 443
570025 726428 509
804573 364700 509
705864 464994 509
342557 431933 449
405820 741005 509
445179 820589 509
921562 918119 432
948027 29369 525
746119 673036 504
749701 477074 509
956574 75455 525
269012 708399 509
56865 421326 449
568466 172126 470
498043 285773 449
600671 110860 470
924145 503398 525
321292 551443 470
360942 756945 509
914520 326252 525
560321 481733 470
30796 899341 525
202129 449087 449
681243 180997 509
813332 308459 509
943308 267956 525
112161 180280 383
282442 953280 525
815637 31493 509
913430 832132 525
417082 824608 509
339241 335531 366
127404 806353 509
252298 940473 525
801331 962283 525
228289 812604 509
639266 505672 509
864728 461118 525
826698 502559 509
387271 362508 423
350470 705305 509
820190 43735 509
569201 336197 470
417530 638508 509
322478 758505 509
937140 401239 525
247304 842283 525
480750 855485 525
784463 845884 525
119629 916971 525
39485 869088 525
838434 787154 525
175951 416955 449
796283 85007 509
401117 922504 525
332088 446839 449
932512 628650 525
966552 861021 507
430272 77050 449
942357 601036 525
600467 659407 509
973322 412200 525
687602 494511 509
590014 564220 434
474628 473253 382
339318 144723 443
73748 449403 449
192268 276789 443
697601 226520 509
285155 203063 443
730416 533099 509
93567 64225 351
94004 747587 509
641086 750133 504
168567 791625 509
302379 344118 384
672319 865029 525
726537 70525 509
417005 922156 525
277893 533941 470
474191 975511 525
770184 103769 509
108686 801956 509
851252 683048 525
179903 391990 443
882414 437415 525
52997 75649 335
153935 545256 470
911319 156913 525
951601 898597 507
929996 802673 525
975461 75272 525
665805 428799 509
236483 116028 443
393174 351144 436
328763 782888 509
118250 773608 509
68575 695669 509
623425 326008 470
364840 668832 509
782141 394826 509
330348 29018 443
452294 687068 509
149203 273267 443
271319 626341 509
352722 208283 443
64195 989555 525
844460 809750 525
866095 419041 525
428909 256463 449
13586 714444 509
594103 359953 470
850100 436276 525
354862 886406 525
480267 893938 525
514909 366987 470
962654 516583 525
419646 489662 444
557231 586892 434
651245 940335 525
107996 596896 470
305787 973226 525
766937 748268 424
964433 266756 525
159816 339620 443
10030 885036 525
725566 346081 509
678861 195129 509
89601 361977 443
148793 644215 509
450096 817815 509
354970 110871 443
449883 499100 444
762767 2882 509
249644 632387 509
907812 604461 525
194149 260587 443
700060 475699 509
747448 379539 509
316378 866122 525
149994 205872 383
820030 582090 509
493671 612306 470
491800 534376 470
943295 985564 458
929138 851456 476
330496 147688 443
591601 701004 509
3061 196973 383
448944 803726 509
854516 862822 388
921068 819474 525
427493 895215 525
560926 715655 509
754037 28915 509
846290 839181 401
